{
  "animals": [
    {
      "id": 69316379,
      "organization_id": "IN220",
      "url": "https://www.petfinder.com/cat/bones-69316379/in/bloomington/bloomington-animal-shelter-in220/?referrer_id=5bf9182e-6c1c-42cb-a552-a161635daad0&utm_source=api&utm_medium=partnership&utm_content=5bf9182e-6c1c-42cb-a552-a161635daad0",
      "type": "Cat",
      "species": "Cat",
      "breeds": {"primary": "Domestic Short Hair", "secondary": null, "mixed": false, "unknown": false},
      "colors": {"primary": null, "secondary": null, "tertiary": null},
      "age": "Baby",
      "gender": "Male",
      "size": "Medium",
      "coat": null,
      "attributes": {"spayed_neutered": false, "house_trained": false, "declawed": false, "special_needs": false, "shots_current": true},
      "environment": {"children": null, "dogs": null, "cats": null},
      "tags": [],
      "name": "Bones",
      "description": null,
      "organization_animal_id": "C23101230",
      "photos": [{"small": "https://dl5zpyw5k3jeb.cloudfront.net/photos/pets/69316379/1/?bust=1697452576&width=100",
        "medium": "https://dl5zpyw5k3jeb.cloudfront.net/photos/pets/69316379/1/?bust=1697452576&width=300",
        "large": "https://dl5zpyw5k3jeb.cloudfront.net/photos/pets/69316379/1/?bust=1697452576&width=600",
        "full": "https://dl5zpyw5k3jeb.cloudfront.net/photos/pets/69316379/1/?bust=1697452576"}],
      "primary_photo_cropped": {
        "small": "https://dl5zpyw5k3jeb.cloudfront.net/photos/pets/69316379/1/?bust=1697452576&width=300",
        "medium": "https://dl5zpyw5k3jeb.cloudfront.net/photos/pets/69316379/1/?bust=1697452576&width=450",
        "large": "https://dl5zpyw5k3jeb.cloudfront.net/photos/pets/69316379/1/?bust=1697452576&width=600",
        "full": "https://dl5zpyw5k3jeb.cloudfront.net/photos/pets/69316379/1/?bust=1697452576"},
      "videos": [],
      "status": "adoptable",
      "status_changed_at": "2023-10-16T10:28:21+0000",
      "published_at": "2023-10-16T10:28:19+0000",
      "distance": 62.4495,
      "contact": {"email": "animal@bloomington.in.gov", "phone": "(812) 349-3492", "address": {"address1": "3410 S. Walnut Street", "address2": null, "city": "Bloomington", "state": "IN", "postcode": "47401", "country": "US"}, "_links": {"self": {"href": "/v2/animals/69316379"}, "type": {"href": "/v2/types/cat"}, "organization": {"href": "/v2/organizations/in220"}}
      }},{
      "id": 69316381,
      "organization_id": "IN220",
      "url": "https://www.petfinder.com/dog/charm-69316381/in/bloomington/bloomington-animal-shelter-in220/?referrer_id=5bf9182e-6c1c-42cb-a552-a161635daad0&utm_source=api&utm_medium=partnership&utm_content=5bf9182e-6c1c-42cb-a552-a161635daad0",
      "type": "Dog",
      "species": "Dog",
      "breeds": {
        "primary": "Pit Bull Terrier",
        "secondary": null,
        "mixed": false,
        "unknown": false
      },
      "colors": {
        "primary": null,
        "secondary": null,
        "tertiary": null
      },
      "age": "Adult",
      "gender": "Female",
      "size": "Medium",
      "coat": null,
      "attributes": {
        "spayed_neutered": false,
        "house_trained": false,
        "declawed": null,
        "special_needs": false,
        "shots_current": true
      },
      "environment": {
        "children": null,
        "dogs": true,
        "cats": null
      },
      "tags": [],
      "name": "Charm",
      "description": null,
      "organization_animal_id": "D23101241",
      "photos": [
        {
          "small": "https://dl5zpyw5k3jeb.cloudfront.net/photos/pets/69316381/1/?bust=1697452576&width=100",
          "medium": "https://dl5zpyw5k3jeb.cloudfront.net/photos/pets/69316381/1/?bust=1697452576&width=300",
          "large": "https://dl5zpyw5k3jeb.cloudfront.net/photos/pets/69316381/1/?bust=1697452576&width=600",
          "full": "https://dl5zpyw5k3jeb.cloudfront.net/photos/pets/69316381/1/?bust=1697452576"
        }
      ],
      "primary_photo_cropped": {
        "small": "https://dl5zpyw5k3jeb.cloudfront.net/photos/pets/69316381/1/?bust=1697452576&width=300",
        "medium": "https://dl5zpyw5k3jeb.cloudfront.net/photos/pets/69316381/1/?bust=1697452576&width=450",
        "large": "https://dl5zpyw5k3jeb.cloudfront.net/photos/pets/69316381/1/?bust=1697452576&width=600",
        "full": "https://dl5zpyw5k3jeb.cloudfront.net/photos/pets/69316381/1/?bust=1697452576"
      },
      "videos": [],
      "status": "adoptable",
      "status_changed_at": "2023-10-16T10:28:21+0000",
      "published_at": "2023-10-16T10:28:19+0000",
      "distance": 62.4495,
      "contact": {
        "email": "animal@bloomington.in.gov",
        "phone": "(812) 349-3492",
        "address": {
          "address1": "3410 S. Walnut Street",
          "address2": null,
          "city": "Bloomington",
          "state": "IN",
          "postcode": "47401",
          "country": "US"
        },
        "_links": {
          "self": {
            "href": "/v2/animals/69316381"
          },
          "type": {
            "href": "/v2/types/dog"
          },
          "organization": {
            "href": "/v2/organizations/in220"
          }
        }
      }
    },
    {
      "id": 69316382,
      "organization_id": "IN220",
      "url": "https://www.petfinder.com/cat/count-coolman-69316382/in/bloomington/bloomington-animal-shelter-in220/?referrer_id=5bf9182e-6c1c-42cb-a552-a161635daad0&utm_source=api&utm_medium=partnership&utm_content=5bf9182e-6c1c-42cb-a552-a161635daad0",
      "type": "Cat",
      "species": "Cat",
      "breeds": {
        "primary": "Domestic Short Hair",
        "secondary": null,
        "mixed": false,
        "unknown": false
      },
      "colors": {
        "primary": null,
        "secondary": null,
        "tertiary": null
      },
      "age": "Adult",
      "gender": "Male",
      "size": "Medium",
      "coat": null,
      "attributes": {
        "spayed_neutered": false,
        "house_trained": false,
        "declawed": false,
        "special_needs": false,
        "shots_current": true
      },
      "environment": {
        "children": null,
        "dogs": null,
        "cats": null
      },
      "tags": [],
      "name": "Count Coolman",
      "description": null,
      "organization_animal_id": "C23101245",
      "photos": [
        {
          "small": "https://dl5zpyw5k3jeb.cloudfront.net/photos/pets/69316382/1/?bust=1697452583&width=100",
          "medium": "https://dl5zpyw5k3jeb.cloudfront.net/photos/pets/69316382/1/?bust=1697452583&width=300",
          "large": "https://dl5zpyw5k3jeb.cloudfront.net/photos/pets/69316382/1/?bust=1697452583&width=600",
          "full": "https://dl5zpyw5k3jeb.cloudfront.net/photos/pets/69316382/1/?bust=1697452583"
        }
      ],
      "primary_photo_cropped": {
        "small": "https://dl5zpyw5k3jeb.cloudfront.net/photos/pets/69316382/1/?bust=1697452583&width=300",
        "medium": "https://dl5zpyw5k3jeb.cloudfront.net/photos/pets/69316382/1/?bust=1697452583&width=450",
        "large": "https://dl5zpyw5k3jeb.cloudfront.net/photos/pets/69316382/1/?bust=1697452583&width=600",
        "full": "https://dl5zpyw5k3jeb.cloudfront.net/photos/pets/69316382/1/?bust=1697452583"},
      "videos": [],
      "status": "adoptable",
      "status_changed_at": "2023-10-16T10:28:21+0000",
      "published_at": "2023-10-16T10:28:19+0000",
      "distance": 62.4495,
      "contact": {
        "email": "animal@bloomington.in.gov",
        "phone": "(812) 349-3492",
        "address": {
          "address1": "3410 S. Walnut Street",
          "address2": null,
          "city": "Bloomington",
          "state": "IN",
          "postcode": 47401,
          "country": "US"}},
      "_links": {
        "self": {"href": "/v2/animals/69316382"},
        "type": {"href": "/v2/types/cat"},
        "organization": {"href": "/v2/organizations/in220"}}},
    {
      "id": 69316380,
      "organization_id": "IN220",
      "url": "https://www.petfinder.com/dog/tara-69316380/in/bloomington/bloomington-animal-shelter-in220/?referrer_id=5bf9182e-6c1c-42cb-a552-a161635daad0&utm_source=api&utm_medium=partnership&utm_content=5bf9182e-6c1c-42cb-a552-a161635daad0",
      "type": "Dog",
      "species": "Dog",
      "breeds": {
        "primary": "Jack Russell Terrier",
        "secondary": null,
        "mixed": false,
        "unknown": false
      },
      "colors": {
        "primary": null,
        "secondary": null,
        "tertiary": null
      },
      "age": "Adult",
      "gender": "Female",
      "size": "Medium",
      "coat": null,
      "attributes": {
        "spayed_neutered": true,
        "house_trained": false,
        "declawed": null,
        "special_needs": false,
        "shots_current": false
      },
      "environment": {
        "children": null,
        "dogs": null,
        "cats": null
      },
      "tags": [],
      "name": "Tara",
      "description": "Tara is a Courtesy Listing and is not housed at the Animal Shelter. Please note that the City of Bloomington...",
      "organization_animal_id": "D2310496",
      "photos": [],
      "primary_photo_cropped": null,
      "videos": [],
      "status": "adoptable",
      "status_changed_at": "2023-10-16T10:28:20+0000",
      "published_at": "2023-10-16T10:28:19+0000",
      "distance": 62.4495,
      "contact": {
        "email": "animal@bloomington.in.gov",
        "phone": "(812) 349-3492",
        "address": {
          "address1": "3410 S. Walnut Street",
          "address2": null,
          "city": "Bloomington",
          "state": "IN",
          "postcode": "47401",
          "country": "US"
        },
        "_links": {
          "self": {
            "href": "/v2/animals/69316380"
          },
          "type": {
            "href": "/v2/types/dog"
          },
          "organization": {
            "href": "/v2/organizations/in220"
          }
        }
      }
    },
    {
      "id": 69316378,
      "organization_id": "IN220",
      "url": "https://www.petfinder.com/dog/salem-69316378/in/bloomington/bloomington-animal-shelter-in220/?referrer_id=5bf9182e-6c1c-42cb-a552-a161635daad0&utm_source=api&utm_medium=partnership&utm_content=5bf9182e-6c1c-42cb-a552-a161635daad0",
      "type": "Dog",
      "species": "Dog",
      "breeds": {
        "primary": "Pit Bull Terrier",
        "secondary": null,
        "mixed": false,
        "unknown": false
      },
      "colors": {
        "primary": null,
        "secondary": null,
        "tertiary": null
      },
      "age": "Adult",
      "gender": "Male",
      "size": "Medium",
      "coat": null,
      "attributes": {
        "spayed_neutered": false,
        "house_trained": true,
        "declawed": null,
        "special_needs": false,
        "shots_current": true
      },
      "environment": {
        "children": null,
        "dogs": true,
        "cats": null
      },
      "tags": [],
      "name": "Salem",
      "description": null,
      "organization_animal_id": "D23101240",
      "photos": [
        {
          "small": "https://dl5zpyw5k3jeb.cloudfront.net/photos/pets/69316378/1/?bust=1697452662&width=100",
          "medium": "https://dl5zpyw5k3jeb.cloudfront.net/photos/pets/69316378/1/?bust=1697452662&width=300",
          "large": "https://dl5zpyw5k3jeb.cloudfront.net/photos/pets/69316378/1/?bust=1697452662&width=600",
          "full": "https://dl5zpyw5k3jeb.cloudfront.net/photos/pets/69316378/1/?bust=1697452662"
        }
      ],
      "primary_photo_cropped": {
        "small": "https://dl5zpyw5k3jeb.cloudfront.net/photos/pets/69316378/1/?bust=1697452662&width=300",
        "medium": "https://dl5zpyw5k3jeb.cloudfront.net/photos/pets/69316378/1/?bust=1697452662&width=450",
        "large": "https://dl5zpyw5k3jeb.cloudfront.net/photos/pets/69316378/1/?bust=1697452662&width=600",
        "full": "https://dl5zpyw5k3jeb.cloudfront.net/photos/pets/69316378/1/?bust=1697452662"
      },
      "videos": [],
      "status": "adoptable",
      "status_changed_at": "2023-10-16T10:28:21+0000",
      "published_at": "2023-10-16T10:28:19+0000",
      "distance": 62.4495,
      "contact": {
        "email": "animal@bloomington.in.gov",
        "phone": "(812) 349-3492",
        "address": {
          "address1": "3410 S. Walnut Street",
          "address2": null,
          "city": "Bloomington",
          "state": "IN",
          "postcode": "47401",
          "country": "US"
        },
        "_links": {
          "self": {
            "href": "/v2/animals/69316378"
          },
          "type": {
            "href": "/v2/types/dog"
          },
          "organization": {
            "href": "/v2/organizations/in220"
          }
        }
      }
    }],
  "pagination": {
    "count_per_page": 5,
    "total_count": 5745,
    "current_page": 1,
    "total_pages": 1149,
    "_links": {
      "next": {
        "href": "/v2/animals?limit=5&location=Indiana&page=2"
      }
    }
  }}
